CRITICAL - 2021-06-15 00:23:04 --> Class 'Models\Auth\UserModel' not found
#0 D:\LaragonPortable\www\myth\vendor\codeigniter4\framework\system\CodeIgniter.php(928): App\Controllers\Admin->detail('3')
#1 D:\LaragonPortable\www\myth\vendor\codeigniter4\framework\system\CodeIgniter.php(436): CodeIgniter\CodeIgniter->runController(Object(App\Controllers\Admin))
#2 D:\LaragonPortable\www\myth\vendor\codeigniter4\framework\system\CodeIgniter.php(336): CodeIgniter\CodeIgniter->handleRequest(NULL, Object(Config\Cache), false)
#3 D:\LaragonPortable\www\myth\public\index.php(37): CodeIgniter\CodeIgniter->run()
#4 {main}
CRITICAL - 2021-06-15 00:28:55 --> Cannot declare class Models\Auth\UserModel, because the name is already in use
#0 [internal function]: CodeIgniter\Debug\Exceptions->shutdownHandler()
#1 {main}
CRITICAL - 2021-06-15 00:29:44 --> Class 'Models\Auth\UserModel' not found
#0 D:\LaragonPortable\www\myth\vendor\codeigniter4\framework\system\CodeIgniter.php(928): App\Controllers\Admin->detail('3')
#1 D:\LaragonPortable\www\myth\vendor\codeigniter4\framework\system\CodeIgniter.php(436): CodeIgniter\CodeIgniter->runController(Object(App\Controllers\Admin))
#2 D:\LaragonPortable\www\myth\vendor\codeigniter4\framework\system\CodeIgniter.php(336): CodeIgniter\CodeIgniter->handleRequest(NULL, Object(Config\Cache), false)
#3 D:\LaragonPortable\www\myth\public\index.php(37): CodeIgniter\CodeIgniter->run()
#4 {main}
CRITICAL - 2021-06-15 00:31:23 --> Class 'Models\auth\UserModel' not found
#0 D:\LaragonPortable\www\myth\vendor\codeigniter4\framework\system\CodeIgniter.php(928): App\Controllers\Admin->detail('3')
#1 D:\LaragonPortable\www\myth\vendor\codeigniter4\framework\system\CodeIgniter.php(436): CodeIgniter\CodeIgniter->runController(Object(App\Controllers\Admin))
#2 D:\LaragonPortable\www\myth\vendor\codeigniter4\framework\system\CodeIgniter.php(336): CodeIgniter\CodeIgniter->handleRequest(NULL, Object(Config\Cache), false)
#3 D:\LaragonPortable\www\myth\public\index.php(37): CodeIgniter\CodeIgniter->run()
#4 {main}
CRITICAL - 2021-06-15 00:32:58 --> Cannot declare class Models\auth\UserModel, because the name is already in use
#0 [internal function]: CodeIgniter\Debug\Exceptions->shutdownHandler()
#1 {main}
CRITICAL - 2021-06-15 00:33:09 --> Cannot declare class Models\Auth\UserModel, because the name is already in use
#0 [internal function]: CodeIgniter\Debug\Exceptions->shutdownHandler()
#1 {main}
CRITICAL - 2021-06-15 00:34:44 --> Class 'Models\Auth\Usermodel' not found
#0 D:\LaragonPortable\www\myth\vendor\codeigniter4\framework\system\CodeIgniter.php(928): App\Controllers\Admin->detail('3')
#1 D:\LaragonPortable\www\myth\vendor\codeigniter4\framework\system\CodeIgniter.php(436): CodeIgniter\CodeIgniter->runController(Object(App\Controllers\Admin))
#2 D:\LaragonPortable\www\myth\vendor\codeigniter4\framework\system\CodeIgniter.php(336): CodeIgniter\CodeIgniter->handleRequest(NULL, Object(Config\Cache), false)
#3 D:\LaragonPortable\www\myth\public\index.php(37): CodeIgniter\CodeIgniter->run()
#4 {main}
CRITICAL - 2021-06-15 00:41:42 --> Cannot declare class Models\Auth\UserModel, because the name is already in use
#0 [internal function]: CodeIgniter\Debug\Exceptions->shutdownHandler()
#1 {main}
CRITICAL - 2021-06-15 00:48:26 --> Call to a member function clearGroup() on null
#0 D:\LaragonPortable\www\myth\vendor\codeigniter4\framework\system\CodeIgniter.php(928): App\Controllers\Admin->detail('3')
#1 D:\LaragonPortable\www\myth\vendor\codeigniter4\framework\system\CodeIgniter.php(436): CodeIgniter\CodeIgniter->runController(Object(App\Controllers\Admin))
#2 D:\LaragonPortable\www\myth\vendor\codeigniter4\framework\system\CodeIgniter.php(336): CodeIgniter\CodeIgniter->handleRequest(NULL, Object(Config\Cache), false)
#3 D:\LaragonPortable\www\myth\public\index.php(37): CodeIgniter\CodeIgniter->run()
#4 {main}
CRITICAL - 2021-06-15 00:49:22 --> Call to a member function clearGroup() on null
#0 D:\LaragonPortable\www\myth\vendor\codeigniter4\framework\system\CodeIgniter.php(928): App\Controllers\Admin->detail('3')
#1 D:\LaragonPortable\www\myth\vendor\codeigniter4\framework\system\CodeIgniter.php(436): CodeIgniter\CodeIgniter->runController(Object(App\Controllers\Admin))
#2 D:\LaragonPortable\www\myth\vendor\codeigniter4\framework\system\CodeIgniter.php(336): CodeIgniter\CodeIgniter->handleRequest(NULL, Object(Config\Cache), false)
#3 D:\LaragonPortable\www\myth\public\index.php(37): CodeIgniter\CodeIgniter->run()
#4 {main}
CRITICAL - 2021-06-15 00:51:33 --> Call to a member function clearGroup() on null
#0 D:\LaragonPortable\www\myth\vendor\codeigniter4\framework\system\CodeIgniter.php(928): App\Controllers\Admin->detail('3')
#1 D:\LaragonPortable\www\myth\vendor\codeigniter4\framework\system\CodeIgniter.php(436): CodeIgniter\CodeIgniter->runController(Object(App\Controllers\Admin))
#2 D:\LaragonPortable\www\myth\vendor\codeigniter4\framework\system\CodeIgniter.php(336): CodeIgniter\CodeIgniter->handleRequest(NULL, Object(Config\Cache), false)
#3 D:\LaragonPortable\www\myth\public\index.php(37): CodeIgniter\CodeIgniter->run()
#4 {main}
CRITICAL - 2021-06-15 00:51:43 --> Call to a member function withGroup() on null
#0 D:\LaragonPortable\www\myth\vendor\codeigniter4\framework\system\CodeIgniter.php(928): App\Controllers\Admin->detail('3')
#1 D:\LaragonPortable\www\myth\vendor\codeigniter4\framework\system\CodeIgniter.php(436): CodeIgniter\CodeIgniter->runController(Object(App\Controllers\Admin))
#2 D:\LaragonPortable\www\myth\vendor\codeigniter4\framework\system\CodeIgniter.php(336): CodeIgniter\CodeIgniter->handleRequest(NULL, Object(Config\Cache), false)
#3 D:\LaragonPortable\www\myth\public\index.php(37): CodeIgniter\CodeIgniter->run()
#4 {main}
CRITICAL - 2021-06-15 00:52:20 --> Call to a member function withGroup() on null
#0 D:\LaragonPortable\www\myth\vendor\codeigniter4\framework\system\CodeIgniter.php(928): App\Controllers\Admin->detail('3')
#1 D:\LaragonPortable\www\myth\vendor\codeigniter4\framework\system\CodeIgniter.php(436): CodeIgniter\CodeIgniter->runController(Object(App\Controllers\Admin))
#2 D:\LaragonPortable\www\myth\vendor\codeigniter4\framework\system\CodeIgniter.php(336): CodeIgniter\CodeIgniter->handleRequest(NULL, Object(Config\Cache), false)
#3 D:\LaragonPortable\www\myth\public\index.php(37): CodeIgniter\CodeIgniter->run()
#4 {main}
CRITICAL - 2021-06-15 00:52:49 --> Call to a member function withGroup() on null
#0 D:\LaragonPortable\www\myth\vendor\codeigniter4\framework\system\CodeIgniter.php(928): App\Controllers\Admin->detail('3')
#1 D:\LaragonPortable\www\myth\vendor\codeigniter4\framework\system\CodeIgniter.php(436): CodeIgniter\CodeIgniter->runController(Object(App\Controllers\Admin))
#2 D:\LaragonPortable\www\myth\vendor\codeigniter4\framework\system\CodeIgniter.php(336): CodeIgniter\CodeIgniter->handleRequest(NULL, Object(Config\Cache), false)
#3 D:\LaragonPortable\www\myth\public\index.php(37): CodeIgniter\CodeIgniter->run()
#4 {main}
CRITICAL - 2021-06-15 00:53:08 --> Call to a member function withGroup() on null
#0 D:\LaragonPortable\www\myth\vendor\codeigniter4\framework\system\CodeIgniter.php(928): App\Controllers\Admin->detail('3')
#1 D:\LaragonPortable\www\myth\vendor\codeigniter4\framework\system\CodeIgniter.php(436): CodeIgniter\CodeIgniter->runController(Object(App\Controllers\Admin))
#2 D:\LaragonPortable\www\myth\vendor\codeigniter4\framework\system\CodeIgniter.php(336): CodeIgniter\CodeIgniter->handleRequest(NULL, Object(Config\Cache), false)
#3 D:\LaragonPortable\www\myth\public\index.php(37): CodeIgniter\CodeIgniter->run()
#4 {main}
CRITICAL - 2021-06-15 00:53:56 --> Call to a member function withGroup() on null
#0 D:\LaragonPortable\www\myth\vendor\codeigniter4\framework\system\CodeIgniter.php(928): App\Controllers\Admin->detail('3')
#1 D:\LaragonPortable\www\myth\vendor\codeigniter4\framework\system\CodeIgniter.php(436): CodeIgniter\CodeIgniter->runController(Object(App\Controllers\Admin))
#2 D:\LaragonPortable\www\myth\vendor\codeigniter4\framework\system\CodeIgniter.php(336): CodeIgniter\CodeIgniter->handleRequest(NULL, Object(Config\Cache), false)
#3 D:\LaragonPortable\www\myth\public\index.php(37): CodeIgniter\CodeIgniter->run()
#4 {main}
CRITICAL - 2021-06-15 00:56:27 --> Call to a member function withGroup() on null
#0 D:\LaragonPortable\www\myth\vendor\codeigniter4\framework\system\CodeIgniter.php(928): App\Controllers\Admin->detail('3')
#1 D:\LaragonPortable\www\myth\vendor\codeigniter4\framework\system\CodeIgniter.php(436): CodeIgniter\CodeIgniter->runController(Object(App\Controllers\Admin))
#2 D:\LaragonPortable\www\myth\vendor\codeigniter4\framework\system\CodeIgniter.php(336): CodeIgniter\CodeIgniter->handleRequest(NULL, Object(Config\Cache), false)
#3 D:\LaragonPortable\www\myth\public\index.php(37): CodeIgniter\CodeIgniter->run()
#4 {main}
CRITICAL - 2021-06-15 00:56:45 --> Call to a member function protect() on null
#0 D:\LaragonPortable\www\myth\vendor\codeigniter4\framework\system\CodeIgniter.php(928): App\Controllers\Admin->detail('3')
#1 D:\LaragonPortable\www\myth\vendor\codeigniter4\framework\system\CodeIgniter.php(436): CodeIgniter\CodeIgniter->runController(Object(App\Controllers\Admin))
#2 D:\LaragonPortable\www\myth\vendor\codeigniter4\framework\system\CodeIgniter.php(336): CodeIgniter\CodeIgniter->handleRequest(NULL, Object(Config\Cache), false)
#3 D:\LaragonPortable\www\myth\public\index.php(37): CodeIgniter\CodeIgniter->run()
#4 {main}
CRITICAL - 2021-06-15 01:01:25 --> Undefined index: group
#0 D:\LaragonPortable\www\myth\app\Controllers\Admin.php(44): CodeIgniter\Debug\Exceptions->errorHandler(8, 'Undefined index...', 'D:\\LaragonPorta...', 44, Array)
#1 D:\LaragonPortable\www\myth\vendor\codeigniter4\framework\system\CodeIgniter.php(928): App\Controllers\Admin->detail('3')
#2 D:\LaragonPortable\www\myth\vendor\codeigniter4\framework\system\CodeIgniter.php(436): CodeIgniter\CodeIgniter->runController(Object(App\Controllers\Admin))
#3 D:\LaragonPortable\www\myth\vendor\codeigniter4\framework\system\CodeIgniter.php(336): CodeIgniter\CodeIgniter->handleRequest(NULL, Object(Config\Cache), false)
#4 D:\LaragonPortable\www\myth\public\index.php(37): CodeIgniter\CodeIgniter->run()
#5 {main}
CRITICAL - 2021-06-15 01:04:29 --> syntax error, unexpected '->' (T_OBJECT_OPERATOR), expecting identifier (T_STRING) or variable (T_VARIABLE) or '{' or '$'
#0 D:\LaragonPortable\www\myth\vendor\codeigniter4\framework\system\Autoloader\Autoloader.php(273): CodeIgniter\Autoloader\Autoloader->includeFile('D:\\LaragonPorta...')
#1 D:\LaragonPortable\www\myth\vendor\codeigniter4\framework\system\Autoloader\Autoloader.php(247): CodeIgniter\Autoloader\Autoloader->loadInNamespace('App\\Controllers...')
#2 [internal function]: CodeIgniter\Autoloader\Autoloader->loadClass('App\\Controllers...')
#3 [internal function]: spl_autoload_call('App\\Controllers...')
#4 D:\LaragonPortable\www\myth\vendor\codeigniter4\framework\system\CodeIgniter.php(885): class_exists('\\App\\Controller...', true)
#5 D:\LaragonPortable\www\myth\vendor\codeigniter4\framework\system\CodeIgniter.php(421): CodeIgniter\CodeIgniter->startController()
#6 D:\LaragonPortable\www\myth\vendor\codeigniter4\framework\system\CodeIgniter.php(336): CodeIgniter\CodeIgniter->handleRequest(NULL, Object(Config\Cache), false)
#7 D:\LaragonPortable\www\myth\public\index.php(37): CodeIgniter\CodeIgniter->run()
#8 {main}
CRITICAL - 2021-06-15 01:08:38 --> Trying to get property 'id' of non-object
#0 D:\LaragonPortable\www\myth\vendor\myth\auth\src\Models\UserModel.php(86): CodeIgniter\Debug\Exceptions->errorHandler(8, 'Trying to get p...', 'D:\\LaragonPorta...', 86, Array)
#1 D:\LaragonPortable\www\myth\app\Controllers\Admin.php(44): Myth\Auth\Models\UserModel->withGroup('2')
#2 D:\LaragonPortable\www\myth\vendor\codeigniter4\framework\system\CodeIgniter.php(928): App\Controllers\Admin->detail('3')
#3 D:\LaragonPortable\www\myth\vendor\codeigniter4\framework\system\CodeIgniter.php(436): CodeIgniter\CodeIgniter->runController(Object(App\Controllers\Admin))
#4 D:\LaragonPortable\www\myth\vendor\codeigniter4\framework\system\CodeIgniter.php(336): CodeIgniter\CodeIgniter->handleRequest(NULL, Object(Config\Cache), false)
#5 D:\LaragonPortable\www\myth\public\index.php(37): CodeIgniter\CodeIgniter->run()
#6 {main}
CRITICAL - 2021-06-15 01:20:22 --> Invalid argument supplied for foreach()
#0 D:\LaragonPortable\www\myth\app\Views\templates\_message_block.php(15): CodeIgniter\Debug\Exceptions->errorHandler(2, 'Invalid argumen...', 'D:\\LaragonPorta...', 15, Array)
#1 D:\LaragonPortable\www\myth\vendor\codeigniter4\framework\system\View\View.php(230): include('D:\\LaragonPorta...')
#2 D:\LaragonPortable\www\myth\vendor\codeigniter4\framework\system\View\View.php(232): CodeIgniter\View\View->CodeIgniter\View\{closure}()
#3 D:\LaragonPortable\www\myth\vendor\codeigniter4\framework\system\Common.php(1271): CodeIgniter\View\View->render('templates\\_mess...', Array, true)
#4 D:\LaragonPortable\www\myth\app\Views\admin\detail.php(18): view('templates\\_mess...')
#5 D:\LaragonPortable\www\myth\vendor\codeigniter4\framework\system\View\View.php(230): include('D:\\LaragonPorta...')
#6 D:\LaragonPortable\www\myth\vendor\codeigniter4\framework\system\View\View.php(232): CodeIgniter\View\View->CodeIgniter\View\{closure}()
#7 D:\LaragonPortable\www\myth\vendor\codeigniter4\framework\system\Common.php(1271): CodeIgniter\View\View->render('admin/detail', Array, true)
#8 D:\LaragonPortable\www\myth\app\Controllers\Admin.php(75): view('admin/detail', Array)
#9 D:\LaragonPortable\www\myth\vendor\codeigniter4\framework\system\CodeIgniter.php(928): App\Controllers\Admin->detail('3')
#10 D:\LaragonPortable\www\myth\vendor\codeigniter4\framework\system\CodeIgniter.php(436): CodeIgniter\CodeIgniter->runController(Object(App\Controllers\Admin))
#11 D:\LaragonPortable\www\myth\vendor\codeigniter4\framework\system\CodeIgniter.php(336): CodeIgniter\CodeIgniter->handleRequest(NULL, Object(Config\Cache), false)
#12 D:\LaragonPortable\www\myth\public\index.php(37): CodeIgniter\CodeIgniter->run()
#13 {main}
CRITICAL - 2021-06-15 01:22:49 --> You do not have sufficient permissions to access that page.
#0 D:\LaragonPortable\www\myth\vendor\codeigniter4\framework\system\Filters\Filters.php(181): Myth\Auth\Filters\RoleFilter->before(Object(CodeIgniter\HTTP\IncomingRequest), Array)
#1 D:\LaragonPortable\www\myth\vendor\codeigniter4\framework\system\CodeIgniter.php(407): CodeIgniter\Filters\Filters->run('list/3', 'before')
#2 D:\LaragonPortable\www\myth\vendor\codeigniter4\framework\system\CodeIgniter.php(336): CodeIgniter\CodeIgniter->handleRequest(NULL, Object(Config\Cache), false)
#3 D:\LaragonPortable\www\myth\public\index.php(37): CodeIgniter\CodeIgniter->run()
#4 {main}
CRITICAL - 2021-06-15 01:23:00 --> You do not have sufficient permissions to access that page.
#0 D:\LaragonPortable\www\myth\vendor\codeigniter4\framework\system\Filters\Filters.php(181): Myth\Auth\Filters\RoleFilter->before(Object(CodeIgniter\HTTP\IncomingRequest), Array)
#1 D:\LaragonPortable\www\myth\vendor\codeigniter4\framework\system\CodeIgniter.php(407): CodeIgniter\Filters\Filters->run('list/3', 'before')
#2 D:\LaragonPortable\www\myth\vendor\codeigniter4\framework\system\CodeIgniter.php(336): CodeIgniter\CodeIgniter->handleRequest(NULL, Object(Config\Cache), false)
#3 D:\LaragonPortable\www\myth\public\index.php(37): CodeIgniter\CodeIgniter->run()
#4 {main}
CRITICAL - 2021-06-15 01:23:15 --> You do not have sufficient permissions to access that page.
#0 D:\LaragonPortable\www\myth\vendor\codeigniter4\framework\system\Filters\Filters.php(181): Myth\Auth\Filters\RoleFilter->before(Object(CodeIgniter\HTTP\IncomingRequest), Array)
#1 D:\LaragonPortable\www\myth\vendor\codeigniter4\framework\system\CodeIgniter.php(407): CodeIgniter\Filters\Filters->run('list/3', 'before')
#2 D:\LaragonPortable\www\myth\vendor\codeigniter4\framework\system\CodeIgniter.php(336): CodeIgniter\CodeIgniter->handleRequest(NULL, Object(Config\Cache), false)
#3 D:\LaragonPortable\www\myth\public\index.php(37): CodeIgniter\CodeIgniter->run()
#4 {main}
CRITICAL - 2021-06-15 01:23:35 --> You do not have sufficient permissions to access that page.
#0 D:\LaragonPortable\www\myth\vendor\codeigniter4\framework\system\Filters\Filters.php(181): Myth\Auth\Filters\RoleFilter->before(Object(CodeIgniter\HTTP\IncomingRequest), Array)
#1 D:\LaragonPortable\www\myth\vendor\codeigniter4\framework\system\CodeIgniter.php(407): CodeIgniter\Filters\Filters->run('list', 'before')
#2 D:\LaragonPortable\www\myth\vendor\codeigniter4\framework\system\CodeIgniter.php(336): CodeIgniter\CodeIgniter->handleRequest(NULL, Object(Config\Cache), false)
#3 D:\LaragonPortable\www\myth\public\index.php(37): CodeIgniter\CodeIgniter->run()
#4 {main}
CRITICAL - 2021-06-15 01:25:24 --> You do not have sufficient permissions to access that page.
#0 D:\LaragonPortable\www\myth\vendor\codeigniter4\framework\system\Filters\Filters.php(181): Myth\Auth\Filters\RoleFilter->before(Object(CodeIgniter\HTTP\IncomingRequest), Array)
#1 D:\LaragonPortable\www\myth\vendor\codeigniter4\framework\system\CodeIgniter.php(407): CodeIgniter\Filters\Filters->run('list', 'before')
#2 D:\LaragonPortable\www\myth\vendor\codeigniter4\framework\system\CodeIgniter.php(336): CodeIgniter\CodeIgniter->handleRequest(NULL, Object(Config\Cache), false)
#3 D:\LaragonPortable\www\myth\public\index.php(37): CodeIgniter\CodeIgniter->run()
#4 {main}
CRITICAL - 2021-06-15 01:26:17 --> You do not have sufficient permissions to access that page.
#0 D:\LaragonPortable\www\myth\vendor\codeigniter4\framework\system\Filters\Filters.php(181): Myth\Auth\Filters\RoleFilter->before(Object(CodeIgniter\HTTP\IncomingRequest), Array)
#1 D:\LaragonPortable\www\myth\vendor\codeigniter4\framework\system\CodeIgniter.php(407): CodeIgniter\Filters\Filters->run('list', 'before')
#2 D:\LaragonPortable\www\myth\vendor\codeigniter4\framework\system\CodeIgniter.php(336): CodeIgniter\CodeIgniter->handleRequest(NULL, Object(Config\Cache), false)
#3 D:\LaragonPortable\www\myth\public\index.php(37): CodeIgniter\CodeIgniter->run()
#4 {main}
CRITICAL - 2021-06-15 01:26:24 --> You do not have sufficient permissions to access that page.
#0 D:\LaragonPortable\www\myth\vendor\codeigniter4\framework\system\Filters\Filters.php(181): Myth\Auth\Filters\RoleFilter->before(Object(CodeIgniter\HTTP\IncomingRequest), Array)
#1 D:\LaragonPortable\www\myth\vendor\codeigniter4\framework\system\CodeIgniter.php(407): CodeIgniter\Filters\Filters->run('list', 'before')
#2 D:\LaragonPortable\www\myth\vendor\codeigniter4\framework\system\CodeIgniter.php(336): CodeIgniter\CodeIgniter->handleRequest(NULL, Object(Config\Cache), false)
#3 D:\LaragonPortable\www\myth\public\index.php(37): CodeIgniter\CodeIgniter->run()
#4 {main}
CRITICAL - 2021-06-15 01:26:24 --> You do not have sufficient permissions to access that page.
#0 D:\LaragonPortable\www\myth\vendor\codeigniter4\framework\system\Filters\Filters.php(181): Myth\Auth\Filters\RoleFilter->before(Object(CodeIgniter\HTTP\IncomingRequest), Array)
#1 D:\LaragonPortable\www\myth\vendor\codeigniter4\framework\system\CodeIgniter.php(407): CodeIgniter\Filters\Filters->run('list', 'before')
#2 D:\LaragonPortable\www\myth\vendor\codeigniter4\framework\system\CodeIgniter.php(336): CodeIgniter\CodeIgniter->handleRequest(NULL, Object(Config\Cache), false)
#3 D:\LaragonPortable\www\myth\public\index.php(37): CodeIgniter\CodeIgniter->run()
#4 {main}
CRITICAL - 2021-06-15 01:26:29 --> You do not have sufficient permissions to access that page.
#0 D:\LaragonPortable\www\myth\vendor\codeigniter4\framework\system\Filters\Filters.php(181): Myth\Auth\Filters\RoleFilter->before(Object(CodeIgniter\HTTP\IncomingRequest), Array)
#1 D:\LaragonPortable\www\myth\vendor\codeigniter4\framework\system\CodeIgniter.php(407): CodeIgniter\Filters\Filters->run('list', 'before')
#2 D:\LaragonPortable\www\myth\vendor\codeigniter4\framework\system\CodeIgniter.php(336): CodeIgniter\CodeIgniter->handleRequest(NULL, Object(Config\Cache), false)
#3 D:\LaragonPortable\www\myth\public\index.php(37): CodeIgniter\CodeIgniter->run()
#4 {main}
CRITICAL - 2021-06-15 01:26:30 --> You do not have sufficient permissions to access that page.
#0 D:\LaragonPortable\www\myth\vendor\codeigniter4\framework\system\Filters\Filters.php(181): Myth\Auth\Filters\RoleFilter->before(Object(CodeIgniter\HTTP\IncomingRequest), Array)
#1 D:\LaragonPortable\www\myth\vendor\codeigniter4\framework\system\CodeIgniter.php(407): CodeIgniter\Filters\Filters->run('list', 'before')
#2 D:\LaragonPortable\www\myth\vendor\codeigniter4\framework\system\CodeIgniter.php(336): CodeIgniter\CodeIgniter->handleRequest(NULL, Object(Config\Cache), false)
#3 D:\LaragonPortable\www\myth\public\index.php(37): CodeIgniter\CodeIgniter->run()
#4 {main}
CRITICAL - 2021-06-15 01:27:11 --> You do not have sufficient permissions to access that page.
#0 D:\LaragonPortable\www\myth\vendor\codeigniter4\framework\system\Filters\Filters.php(181): Myth\Auth\Filters\RoleFilter->before(Object(CodeIgniter\HTTP\IncomingRequest), Array)
#1 D:\LaragonPortable\www\myth\vendor\codeigniter4\framework\system\CodeIgniter.php(407): CodeIgniter\Filters\Filters->run('list', 'before')
#2 D:\LaragonPortable\www\myth\vendor\codeigniter4\framework\system\CodeIgniter.php(336): CodeIgniter\CodeIgniter->handleRequest(NULL, Object(Config\Cache), false)
#3 D:\LaragonPortable\www\myth\public\index.php(37): CodeIgniter\CodeIgniter->run()
#4 {main}
CRITICAL - 2021-06-15 01:27:12 --> You do not have sufficient permissions to access that page.
#0 D:\LaragonPortable\www\myth\vendor\codeigniter4\framework\system\Filters\Filters.php(181): Myth\Auth\Filters\RoleFilter->before(Object(CodeIgniter\HTTP\IncomingRequest), Array)
#1 D:\LaragonPortable\www\myth\vendor\codeigniter4\framework\system\CodeIgniter.php(407): CodeIgniter\Filters\Filters->run('list', 'before')
#2 D:\LaragonPortable\www\myth\vendor\codeigniter4\framework\system\CodeIgniter.php(336): CodeIgniter\CodeIgniter->handleRequest(NULL, Object(Config\Cache), false)
#3 D:\LaragonPortable\www\myth\public\index.php(37): CodeIgniter\CodeIgniter->run()
#4 {main}
CRITICAL - 2021-06-15 01:27:17 --> You do not have sufficient permissions to access that page.
#0 D:\LaragonPortable\www\myth\vendor\codeigniter4\framework\system\Filters\Filters.php(181): Myth\Auth\Filters\RoleFilter->before(Object(CodeIgniter\HTTP\IncomingRequest), Array)
#1 D:\LaragonPortable\www\myth\vendor\codeigniter4\framework\system\CodeIgniter.php(407): CodeIgniter\Filters\Filters->run('list', 'before')
#2 D:\LaragonPortable\www\myth\vendor\codeigniter4\framework\system\CodeIgniter.php(336): CodeIgniter\CodeIgniter->handleRequest(NULL, Object(Config\Cache), false)
#3 D:\LaragonPortable\www\myth\public\index.php(37): CodeIgniter\CodeIgniter->run()
#4 {main}
CRITICAL - 2021-06-15 01:27:19 --> You do not have sufficient permissions to access that page.
#0 D:\LaragonPortable\www\myth\vendor\codeigniter4\framework\system\Filters\Filters.php(181): Myth\Auth\Filters\RoleFilter->before(Object(CodeIgniter\HTTP\IncomingRequest), Array)
#1 D:\LaragonPortable\www\myth\vendor\codeigniter4\framework\system\CodeIgniter.php(407): CodeIgniter\Filters\Filters->run('list/2', 'before')
#2 D:\LaragonPortable\www\myth\vendor\codeigniter4\framework\system\CodeIgniter.php(336): CodeIgniter\CodeIgniter->handleRequest(NULL, Object(Config\Cache), false)
#3 D:\LaragonPortable\www\myth\public\index.php(37): CodeIgniter\CodeIgniter->run()
#4 {main}
CRITICAL - 2021-06-15 01:27:22 --> You do not have sufficient permissions to access that page.
#0 D:\LaragonPortable\www\myth\vendor\codeigniter4\framework\system\Filters\Filters.php(181): Myth\Auth\Filters\RoleFilter->before(Object(CodeIgniter\HTTP\IncomingRequest), Array)
#1 D:\LaragonPortable\www\myth\vendor\codeigniter4\framework\system\CodeIgniter.php(407): CodeIgniter\Filters\Filters->run('list', 'before')
#2 D:\LaragonPortable\www\myth\vendor\codeigniter4\framework\system\CodeIgniter.php(336): CodeIgniter\CodeIgniter->handleRequest(NULL, Object(Config\Cache), false)
#3 D:\LaragonPortable\www\myth\public\index.php(37): CodeIgniter\CodeIgniter->run()
#4 {main}
CRITICAL - 2021-06-15 01:31:02 --> Encrypter needs a starter key.
#0 D:\LaragonPortable\www\myth\vendor\codeigniter4\framework\system\Encryption\Encryption.php(143): CodeIgniter\Encryption\Exceptions\EncryptionException::forNeedsStarterKey()
#1 D:\LaragonPortable\www\myth\vendor\codeigniter4\framework\system\Config\Services.php(247): CodeIgniter\Encryption\Encryption->initialize(Object(Config\Encryption))
#2 D:\LaragonPortable\www\myth\vendor\codeigniter4\framework\system\Config\BaseService.php(263): CodeIgniter\Config\Services::encrypter()
#3 D:\LaragonPortable\www\myth\app\Controllers\Admin.php(13): CodeIgniter\Config\BaseService::__callStatic('encrypter', Array)
#4 D:\LaragonPortable\www\myth\vendor\codeigniter4\framework\system\CodeIgniter.php(900): App\Controllers\Admin->__construct()
#5 D:\LaragonPortable\www\myth\vendor\codeigniter4\framework\system\CodeIgniter.php(426): CodeIgniter\CodeIgniter->createController()
#6 D:\LaragonPortable\www\myth\vendor\codeigniter4\framework\system\CodeIgniter.php(336): CodeIgniter\CodeIgniter->handleRequest(NULL, Object(Config\Cache), false)
#7 D:\LaragonPortable\www\myth\public\index.php(37): CodeIgniter\CodeIgniter->run()
#8 {main}
CRITICAL - 2021-06-15 01:32:05 --> Call to undefined method App\Controllers\Admin::encrypter()
#0 D:\LaragonPortable\www\myth\vendor\codeigniter4\framework\system\CodeIgniter.php(928): App\Controllers\Admin->detail('2')
#1 D:\LaragonPortable\www\myth\vendor\codeigniter4\framework\system\CodeIgniter.php(436): CodeIgniter\CodeIgniter->runController(Object(App\Controllers\Admin))
#2 D:\LaragonPortable\www\myth\vendor\codeigniter4\framework\system\CodeIgniter.php(336): CodeIgniter\CodeIgniter->handleRequest(NULL, Object(Config\Cache), false)
#3 D:\LaragonPortable\www\myth\public\index.php(37): CodeIgniter\CodeIgniter->run()
#4 {main}
CRITICAL - 2021-06-15 01:32:51 --> Call to undefined method App\Controllers\Admin::encrypt()
#0 D:\LaragonPortable\www\myth\vendor\codeigniter4\framework\system\CodeIgniter.php(928): App\Controllers\Admin->detail('2')
#1 D:\LaragonPortable\www\myth\vendor\codeigniter4\framework\system\CodeIgniter.php(436): CodeIgniter\CodeIgniter->runController(Object(App\Controllers\Admin))
#2 D:\LaragonPortable\www\myth\vendor\codeigniter4\framework\system\CodeIgniter.php(336): CodeIgniter\CodeIgniter->handleRequest(NULL, Object(Config\Cache), false)
#3 D:\LaragonPortable\www\myth\public\index.php(37): CodeIgniter\CodeIgniter->run()
#4 {main}
CRITICAL - 2021-06-15 01:34:49 --> Undefined property: stdClass::$id
#0 D:\LaragonPortable\www\myth\app\Views\admin\detail.php(19): CodeIgniter\Debug\Exceptions->errorHandler(8, 'Undefined prope...', 'D:\\LaragonPorta...', 19, Array)
#1 D:\LaragonPortable\www\myth\vendor\codeigniter4\framework\system\View\View.php(230): include('D:\\LaragonPorta...')
#2 D:\LaragonPortable\www\myth\vendor\codeigniter4\framework\system\View\View.php(232): CodeIgniter\View\View->CodeIgniter\View\{closure}()
#3 D:\LaragonPortable\www\myth\vendor\codeigniter4\framework\system\Common.php(1271): CodeIgniter\View\View->render('admin/detail', Array, true)
#4 D:\LaragonPortable\www\myth\app\Controllers\Admin.php(81): view('admin/detail', Array)
#5 D:\LaragonPortable\www\myth\vendor\codeigniter4\framework\system\CodeIgniter.php(928): App\Controllers\Admin->detail('2')
#6 D:\LaragonPortable\www\myth\vendor\codeigniter4\framework\system\CodeIgniter.php(436): CodeIgniter\CodeIgniter->runController(Object(App\Controllers\Admin))
#7 D:\LaragonPortable\www\myth\vendor\codeigniter4\framework\system\CodeIgniter.php(336): CodeIgniter\CodeIgniter->handleRequest(NULL, Object(Config\Cache), false)
#8 D:\LaragonPortable\www\myth\public\index.php(37): CodeIgniter\CodeIgniter->run()
#9 {main}
CRITICAL - 2021-06-15 01:40:09 --> Decrypting: authentication failed.
#0 D:\LaragonPortable\www\myth\vendor\codeigniter4\framework\system\Encryption\Handlers\OpenSSLHandler.php(104): CodeIgniter\Encryption\Exceptions\EncryptionException::forAuthenticationFailed()
#1 D:\LaragonPortable\www\myth\app\Controllers\Admin.php(44): CodeIgniter\Encryption\Handlers\OpenSSLHandler->decrypt('ZFdTUUFPR0pIIFd...')
#2 D:\LaragonPortable\www\myth\vendor\codeigniter4\framework\system\CodeIgniter.php(928): App\Controllers\Admin->detail('UaKmOUqVy5zDpAD...')
#3 D:\LaragonPortable\www\myth\vendor\codeigniter4\framework\system\CodeIgniter.php(436): CodeIgniter\CodeIgniter->runController(Object(App\Controllers\Admin))
#4 D:\LaragonPortable\www\myth\vendor\codeigniter4\framework\system\CodeIgniter.php(336): CodeIgniter\CodeIgniter->handleRequest(NULL, Object(Config\Cache), false)
#5 D:\LaragonPortable\www\myth\public\index.php(37): CodeIgniter\CodeIgniter->run()
#6 {main}
CRITICAL - 2021-06-15 01:40:19 --> Decrypting: authentication failed.
#0 D:\LaragonPortable\www\myth\vendor\codeigniter4\framework\system\Encryption\Handlers\OpenSSLHandler.php(104): CodeIgniter\Encryption\Exceptions\EncryptionException::forAuthenticationFailed()
#1 D:\LaragonPortable\www\myth\app\Controllers\Admin.php(44): CodeIgniter\Encryption\Handlers\OpenSSLHandler->decrypt('')
#2 D:\LaragonPortable\www\myth\vendor\codeigniter4\framework\system\CodeIgniter.php(928): App\Controllers\Admin->detail('hqTDVb9ZM4e3Rj3...', 'ljEcut1zyqhOAu', 'RrDb2KSwlbTNlib...', 'qU4orIAVVdLCM3M...')
#3 D:\LaragonPortable\www\myth\vendor\codeigniter4\framework\system\CodeIgniter.php(436): CodeIgniter\CodeIgniter->runController(Object(App\Controllers\Admin))
#4 D:\LaragonPortable\www\myth\vendor\codeigniter4\framework\system\CodeIgniter.php(336): CodeIgniter\CodeIgniter->handleRequest(NULL, Object(Config\Cache), false)
#5 D:\LaragonPortable\www\myth\public\index.php(37): CodeIgniter\CodeIgniter->run()
#6 {main}
CRITICAL - 2021-06-15 01:48:35 --> Argument 1 passed to App\Models\Auth\GroupModel::removeUserFromAllGroups() must be of the type int, string given, called in D:\LaragonPortable\www\myth\app\Controllers\Admin.php on line 51
#0 D:\LaragonPortable\www\myth\app\Controllers\Admin.php(51): App\Models\Auth\GroupModel->removeUserFromAllGroups('q2qtlGy12JGN8_M...')
#1 D:\LaragonPortable\www\myth\vendor\codeigniter4\framework\system\CodeIgniter.php(928): App\Controllers\Admin->detail('q2qtlGy12JGN8_M...')
#2 D:\LaragonPortable\www\myth\vendor\codeigniter4\framework\system\CodeIgniter.php(436): CodeIgniter\CodeIgniter->runController(Object(App\Controllers\Admin))
#3 D:\LaragonPortable\www\myth\vendor\codeigniter4\framework\system\CodeIgniter.php(336): CodeIgniter\CodeIgniter->handleRequest(NULL, Object(Config\Cache), false)
#4 D:\LaragonPortable\www\myth\public\index.php(37): CodeIgniter\CodeIgniter->run()
#5 {main}
CRITICAL - 2021-06-15 01:49:49 --> Creating default object from empty value
#0 D:\LaragonPortable\www\myth\app\Controllers\Admin.php(66): CodeIgniter\Debug\Exceptions->errorHandler(2, 'Creating defaul...', 'D:\\LaragonPorta...', 66, Array)
#1 D:\LaragonPortable\www\myth\vendor\codeigniter4\framework\system\CodeIgniter.php(928): App\Controllers\Admin->detail('f')
#2 D:\LaragonPortable\www\myth\vendor\codeigniter4\framework\system\CodeIgniter.php(436): CodeIgniter\CodeIgniter->runController(Object(App\Controllers\Admin))
#3 D:\LaragonPortable\www\myth\vendor\codeigniter4\framework\system\CodeIgniter.php(336): CodeIgniter\CodeIgniter->handleRequest(NULL, Object(Config\Cache), false)
#4 D:\LaragonPortable\www\myth\public\index.php(37): CodeIgniter\CodeIgniter->run()
#5 {main}
CRITICAL - 2021-06-15 01:49:55 --> Creating default object from empty value
#0 D:\LaragonPortable\www\myth\app\Controllers\Admin.php(66): CodeIgniter\Debug\Exceptions->errorHandler(2, 'Creating defaul...', 'D:\\LaragonPorta...', 66, Array)
#1 D:\LaragonPortable\www\myth\vendor\codeigniter4\framework\system\CodeIgniter.php(928): App\Controllers\Admin->detail('6')
#2 D:\LaragonPortable\www\myth\vendor\codeigniter4\framework\system\CodeIgniter.php(436): CodeIgniter\CodeIgniter->runController(Object(App\Controllers\Admin))
#3 D:\LaragonPortable\www\myth\vendor\codeigniter4\framework\system\CodeIgniter.php(336): CodeIgniter\CodeIgniter->handleRequest(NULL, Object(Config\Cache), false)
#4 D:\LaragonPortable\www\myth\public\index.php(37): CodeIgniter\CodeIgniter->run()
#5 {main}
CRITICAL - 2021-06-15 01:50:41 --> Creating default object from empty value
#0 D:\LaragonPortable\www\myth\app\Controllers\Admin.php(66): CodeIgniter\Debug\Exceptions->errorHandler(2, 'Creating defaul...', 'D:\\LaragonPorta...', 66, Array)
#1 D:\LaragonPortable\www\myth\vendor\codeigniter4\framework\system\CodeIgniter.php(928): App\Controllers\Admin->detail('6')
#2 D:\LaragonPortable\www\myth\vendor\codeigniter4\framework\system\CodeIgniter.php(436): CodeIgniter\CodeIgniter->runController(Object(App\Controllers\Admin))
#3 D:\LaragonPortable\www\myth\vendor\codeigniter4\framework\system\CodeIgniter.php(336): CodeIgniter\CodeIgniter->handleRequest(NULL, Object(Config\Cache), false)
#4 D:\LaragonPortable\www\myth\public\index.php(37): CodeIgniter\CodeIgniter->run()
#5 {main}
CRITICAL - 2021-06-15 01:51:43 --> Creating default object from empty value
#0 D:\LaragonPortable\www\myth\app\Controllers\Admin.php(66): CodeIgniter\Debug\Exceptions->errorHandler(2, 'Creating defaul...', 'D:\\LaragonPorta...', 66, Array)
#1 D:\LaragonPortable\www\myth\vendor\codeigniter4\framework\system\CodeIgniter.php(928): App\Controllers\Admin->detail('6')
#2 D:\LaragonPortable\www\myth\vendor\codeigniter4\framework\system\CodeIgniter.php(436): CodeIgniter\CodeIgniter->runController(Object(App\Controllers\Admin))
#3 D:\LaragonPortable\www\myth\vendor\codeigniter4\framework\system\CodeIgniter.php(336): CodeIgniter\CodeIgniter->handleRequest(NULL, Object(Config\Cache), false)
#4 D:\LaragonPortable\www\myth\public\index.php(37): CodeIgniter\CodeIgniter->run()
#5 {main}
CRITICAL - 2021-06-15 02:09:29 --> Decrypting: authentication failed.
#0 D:\LaragonPortable\www\myth\vendor\codeigniter4\framework\system\Encryption\Handlers\OpenSSLHandler.php(104): CodeIgniter\Encryption\Exceptions\EncryptionException::forAuthenticationFailed()
#1 D:\LaragonPortable\www\myth\app\Helpers\encrypt_helper.php(18): CodeIgniter\Encryption\Handlers\OpenSSLHandler->decrypt('')
#2 D:\LaragonPortable\www\myth\app\Controllers\Admin.php(39): decrypt('3')
#3 D:\LaragonPortable\www\myth\vendor\codeigniter4\framework\system\CodeIgniter.php(928): App\Controllers\Admin->detail('3')
#4 D:\LaragonPortable\www\myth\vendor\codeigniter4\framework\system\CodeIgniter.php(436): CodeIgniter\CodeIgniter->runController(Object(App\Controllers\Admin))
#5 D:\LaragonPortable\www\myth\vendor\codeigniter4\framework\system\CodeIgniter.php(336): CodeIgniter\CodeIgniter->handleRequest(NULL, Object(Config\Cache), false)
#6 D:\LaragonPortable\www\myth\public\index.php(37): CodeIgniter\CodeIgniter->run()
#7 {main}
CRITICAL - 2021-06-15 02:21:28 --> Class name must be a valid object or a string
#0 D:\LaragonPortable\www\myth\vendor\codeigniter4\framework\system\Config\BaseService.php(263): Myth\Auth\Config\Services::activator(Object(Config\Auth), false)
#1 D:\LaragonPortable\www\myth\vendor\codeigniter4\framework\system\Config\BaseService.php(192): CodeIgniter\Config\BaseService::__callStatic('activator', Array)
#2 D:\LaragonPortable\www\myth\vendor\myth\auth\src\Config\Services.php(85): CodeIgniter\Config\BaseService::getSharedInstance('activator', NULL)
#3 D:\LaragonPortable\www\myth\vendor\codeigniter4\framework\system\Config\BaseService.php(263): Myth\Auth\Config\Services::activator()
#4 D:\LaragonPortable\www\myth\vendor\codeigniter4\framework\system\Common.php(1084): CodeIgniter\Config\BaseService::__callStatic('activator', Array)
#5 D:\LaragonPortable\www\myth\vendor\myth\auth\src\Controllers\AuthController.php(187): service('activator')
#6 D:\LaragonPortable\www\myth\vendor\codeigniter4\framework\system\CodeIgniter.php(928): Myth\Auth\Controllers\AuthController->attemptRegister()
#7 D:\LaragonPortable\www\myth\vendor\codeigniter4\framework\system\CodeIgniter.php(436): CodeIgniter\CodeIgniter->runController(Object(Myth\Auth\Controllers\AuthController))
#8 D:\LaragonPortable\www\myth\vendor\codeigniter4\framework\system\CodeIgniter.php(336): CodeIgniter\CodeIgniter->handleRequest(NULL, Object(Config\Cache), false)
#9 D:\LaragonPortable\www\myth\public\index.php(37): CodeIgniter\CodeIgniter->run()
#10 {main}
CRITICAL - 2021-06-15 02:30:04 --> Class name must be a valid object or a string
#0 D:\LaragonPortable\www\myth\vendor\codeigniter4\framework\system\Config\BaseService.php(263): Myth\Auth\Config\Services::activator(Object(Config\Auth), false)
#1 D:\LaragonPortable\www\myth\vendor\codeigniter4\framework\system\Config\BaseService.php(192): CodeIgniter\Config\BaseService::__callStatic('activator', Array)
#2 D:\LaragonPortable\www\myth\vendor\myth\auth\src\Config\Services.php(85): CodeIgniter\Config\BaseService::getSharedInstance('activator', NULL)
#3 D:\LaragonPortable\www\myth\vendor\codeigniter4\framework\system\Config\BaseService.php(263): Myth\Auth\Config\Services::activator()
#4 D:\LaragonPortable\www\myth\vendor\codeigniter4\framework\system\Common.php(1084): CodeIgniter\Config\BaseService::__callStatic('activator', Array)
#5 D:\LaragonPortable\www\myth\vendor\myth\auth\src\Controllers\AuthController.php(187): service('activator')
#6 D:\LaragonPortable\www\myth\vendor\codeigniter4\framework\system\CodeIgniter.php(928): Myth\Auth\Controllers\AuthController->attemptRegister()
#7 D:\LaragonPortable\www\myth\vendor\codeigniter4\framework\system\CodeIgniter.php(436): CodeIgniter\CodeIgniter->runController(Object(Myth\Auth\Controllers\AuthController))
#8 D:\LaragonPortable\www\myth\vendor\codeigniter4\framework\system\CodeIgniter.php(336): CodeIgniter\CodeIgniter->handleRequest(NULL, Object(Config\Cache), false)
#9 D:\LaragonPortable\www\myth\public\index.php(37): CodeIgniter\CodeIgniter->run()
#10 {main}
CRITICAL - 2021-06-15 02:31:07 --> Class name must be a valid object or a string
#0 D:\LaragonPortable\www\myth\vendor\codeigniter4\framework\system\Config\BaseService.php(263): Myth\Auth\Config\Services::activator(Object(Config\Auth), false)
#1 D:\LaragonPortable\www\myth\vendor\codeigniter4\framework\system\Config\BaseService.php(192): CodeIgniter\Config\BaseService::__callStatic('activator', Array)
#2 D:\LaragonPortable\www\myth\vendor\myth\auth\src\Config\Services.php(85): CodeIgniter\Config\BaseService::getSharedInstance('activator', NULL)
#3 D:\LaragonPortable\www\myth\vendor\codeigniter4\framework\system\Config\BaseService.php(263): Myth\Auth\Config\Services::activator()
#4 D:\LaragonPortable\www\myth\vendor\codeigniter4\framework\system\Common.php(1084): CodeIgniter\Config\BaseService::__callStatic('activator', Array)
#5 D:\LaragonPortable\www\myth\vendor\myth\auth\src\Controllers\AuthController.php(187): service('activator')
#6 D:\LaragonPortable\www\myth\vendor\codeigniter4\framework\system\CodeIgniter.php(928): Myth\Auth\Controllers\AuthController->attemptRegister()
#7 D:\LaragonPortable\www\myth\vendor\codeigniter4\framework\system\CodeIgniter.php(436): CodeIgniter\CodeIgniter->runController(Object(Myth\Auth\Controllers\AuthController))
#8 D:\LaragonPortable\www\myth\vendor\codeigniter4\framework\system\CodeIgniter.php(336): CodeIgniter\CodeIgniter->handleRequest(NULL, Object(Config\Cache), false)
#9 D:\LaragonPortable\www\myth\public\index.php(37): CodeIgniter\CodeIgniter->run()
#10 {main}
